…
    ## [1] FALSE

Great! All variables within the **titanic_train** dataframe is now
stored in their correct data types and has no more missing values. So
far, we have performed data cleansing and we’re ready to go and create
classification models from it.

``` r
titanic_train
```

    ## # A tibble: 891 x 9
    ##    PassengerId Survived Pclass Sex      Age SibSp Parch  Fare Embarked
    ##          <dbl> <fct>    <fct>  <fct>  <dbl> <dbl> <dbl> <dbl> <fct>   
    ##  1           1 0        3      male      22     1     0  7.25 S       
    ##  2           2 1        1      female    38     1     0 71.3  C       
    ##  3           3 1        3      female    26     0     0  7.92 S       
    ##  4           4 1        1      female    35     1     0 53.1  S       
    ##  5           5 0        3      male      35     0     0  8.05 S       
    ##  6           6 0        3      male      28     0     0  8.46 Q       
    ##  7           7 0        1      male      54     0     0 51.9  S       
    ##  8           8 0        3      male       2     3     1 21.1  S       
    ##  9           9 1        3      female    27     0     2 11.1  S       
    ## 10          10 1        2      female    14     1     0 30.1  C       
    ## # ... with 881 more rows
…
``` r
anyNA(titanic_test)
```

    ## [1] FALSE

### Create model

``` r
titanic_train
```

    ## # A tibble: 891 x 9
    ##    PassengerId Survived Pclass Sex      Age SibSp Parch  Fare Embarked
    ##          <dbl> <fct>    <fct>  <fct>  <dbl> <dbl> <dbl> <dbl> <fct>   
    ##  1           1 0        3      male      22     1     0  7.25 S       
    ##  2           2 1        1      female    38     1     0 71.3  C       
    ##  3           3 1        3      female    26     0     0  7.92 S       
    ##  4           4 1        1      female    35     1     0 53.1  S       
    ##  5           5 0        3      male      35     0     0  8.05 S       
    ##  6           6 0        3      male      28     0     0  8.46 Q       
    ##  7           7 0        1      male      54     0     0 51.9  S       
    ##  8           8 0        3      male       2     3     1 21.1  S       
    ##  9           9 1        3      female    27     0     2 11.1  S       
    ## 10          10 1        2      female    14     1     0 30.1  C       
    ## # ... with 881 more rows
…
